{
  "applications": "*",
  "changelogDate": "20220209055939",
  "dto": "no",
  "embedded": false,
  "entityTableName": "service_details",
  "fields": [
    {
      "fieldName": "comments",
      "fieldType": "String"
    }
  ],
  "fluentMethods": true,
  "jpaMetamodelFiltering": false,
  "name": "ServiceDetails",
  "pagination": "pagination",
  "readOnly": false,
  "relationships": [
    {
      "otherEntityName": "service",
      "otherEntityRelationshipName": "serviceDetails",
      "relationshipName": "serviceId",
      "relationshipType": "many-to-one"
    }
  ],
  "service": "serviceImpl"
}
